{
    "response": {
        "current_page": 1,
        "from": 1,
        "last_page": 5,
        "per_page": 5,
        "total": 25,
        "data": [
            {
                "number_id": 1,
                "name": "Roch",
                "middle_name": "Teofil",
                "surename": "Górka",
                "kind_of_therapy": "Interpersonal therapy",
                "date": 0,
                "time":
            },
            {
                "number_id": 2,
                "name": "Sonia",
                "middle_name": "Salomea",
                "surename": "Mencher",
                "kind_of_therapy": " therapy",
                "date": 0,
                "time":
            },
            {
                "number_id": 3,
                "name": "Konstantyn",
                "middle_name": "Jan",
                "surename": "Stolarz",
                "kind_of_therapy": " therapy",
                "date": 0,
                "time":
            },
            {
                "number_id": 4,
                "name": "Gabriela",
                "middle_name": "Julia",
                "surename": "Chmiel",
                "kind_of_therapy": " therapy",
                "date": 0,
                "time":
            },
            {
                "number_id": 5,
                "name": "Jakub",
                "middle_name": "Kajetan",
                "surename": "Czajkowski",
                "kind_of_therapy": " therapy",
                "date": 0,
                "time":
            },
            {
                "number_id": 6,
                "name": "Dorota",
                "middle_name": "Stefania",
                "surename": "Moździerz",
                "kind_of_therapy": " therapy",
                "date": 0,
                "time":
            },
            {
                "number_id": 7,
                "name": "Aleksander",
                "middle_name": "Tomasz",
                "surename": "Pogoda",
                "kind_of_therapy": "Interpersonal therapy",
                "date": 0,
                "time":
            },
            {
                "number_id": 8,
                "name": "Paweł",
                "middle_name": "Adam",
                "surename": "Dziedzic",
                "kind_of_therapy": " therapy",
                "date": 0,
                "time":
            },
            {
                "number_id": 9,
                "name": "Wioletta",
                "middle_name": "Bożena",
                "surename": "Kolec",
                "kind_of_therapy": " therapy",
                "date": 0,
                "time":
            },
            {
                "number_id": 10,
                "name": "Bożena",
                "middle_name": "Anna",
                "surename": "Chmielec",
                "kind_of_therapy": " therapy",
                "date": 0,
                "time":
            },
            {
                "number_id": 11,
                "name": "Karina",
                "middle_name": "Maria",
                "surename": "Dubanowska",
                "kind_of_therapy": " therapy",
                "date": 0,
                "time":
            },
            {
                "number_id": 12,
                "name": "Erwin",
                "middle_name": "Jarosław",
                "surename": "Wasilewski",
                "kind_of_therapy": " therapy",
                "date": 0,
                "time":
            },
            {
                "number_id": 13,
                "name": "Lidia",
                "middle_name": "Marianna",
                "surename": "Szwedko",
                "kind_of_therapy": " therapy",
                "date": 0,
                "time":
            },
            {
                "number_id": 14,
                "name": "Bohdan",
                "middle_name": "Ignacy",
                "surename": "Jodełka",
                "kind_of_therapy": " therapy",
                "date": 0,
                "time":
            },
            {
                "number_id": 15,
                "name": "Jolanta",
                "middle_name": "Beata",
                "surename": "Ławniczak",
                "kind_of_therapy": " therapy",
                "date": 0,
                "time":
            },
            {
                "number_id": 16,
                "name": "Serafin",
                "middle_name": "Olaf",
                "surename": "Brzezicki",
                "kind_of_therapy": " therapy",
                "date": 0,
                "time":
            },
            {
                "number_id": 17,
                "name": "Malwina",
                "middle_name": "Natalia",
                "surename": "Jarec",
                "kind_of_therapy": " therapy",
                "date": 0,
                "time":
            },
            {
                "number_id": 18,
                "name": "Inga",
                "middle_name": "Marta",
                "surename": "Czajka",
                "kind_of_therapy": " therapy",
                "date": 0,
                "time":
            },
            {
                "number_id": 19,
                "name": "Tamara",
                "middle_name": "Adrianna",
                "surename": "Pasternak",
                "kind_of_therapy": " therapy",
                "date": 0,
                "time":
            },
            {
                "number_id": 20,
                "name": "Adela",
                "middle_name": "Jagoda",
                "surename": "Krawczyk",
                "kind_of_therapy": " therapy",
                "date": 0,
                "time":
            },
            {
                "number_id": 21,
                "name": "Błażej",
                "middle_name": "Konrad",
                "surename": "Gomółka",
                "kind_of_therapy": " therapy",
                "date": 0,
                "time":
            },
            {
                "number_id": 22,
                "name": "Krzysztof",
                "middle_name": "Kazimierz",
                "surename": "Michalak",
                "kind_of_therapy": " therapy",
                "date": 0,
                "time":
            },
            {
                "number_id": 23,
                "name": "Marcin",
                "middle_name": "Jan",
                "surename": "Nowak",
                "kind_of_therapy": " therapy",
                "date": 0,
                "time":
            },
            {
                "number_id": 24,
                "name": "Igor",
                "middle_name": "Andrzej",
                "surename": "Mazur",
                "kind_of_therapy": " therapy",
                "date": 0,
                "time":
            },
            {
                "number_id": 25,
                "name": "Elżbieta",
                "middle_name": "Krystyna",
                "surename": "Wasilewska",
                "kind_of_therapy": " therapy",
                "date": 0,
                "time":
            }
        ]
    }
}